{ 
  "source-user": "root",
  "source-host": "localhost",
  "source-password": "makro123",
  "source-database": "bandchest",
  "target-user": "root",
  "target-host": "localhost",
  "target-password": "makro123",
  "target-database": "ebdb",
  "file": "dump.sql",
  "create-if-not-exists": true
}